lab7
…
# A tibble: 3 × 7
# Groups:   Produkt [3]
  Sklep   Produkt   Miesiac Srednia_Sprzedaz Srednie_Koszty Sredni_Zysk
  <chr>   <chr>     <chr>              <dbl>          <dbl>       <dbl>
1 Sklep_Y Produkt_A Styczeń             344            125.        219.
2 Sklep_Z Produkt_B Luty                278            140.        138.
3 Sklep_Z Produkt_C Marzec              316.           130.        186 
# ℹ 1 more variable: Koszty_na_Sprzedaz <dbl>

Zadanie 3

flights |> arrange(desc(arr_delay))

# A tibble: 336,776 × 19
    year month   day dep_time sched_dep_time dep_delay arr_time sched_arr_time
   <int> <int> <int>    <int>          <int>     <dbl>    <int>          <int>
 1  2013     1     9      641            900      1301     1242           1530
 2  2013     6    15     1432           1935      1137     1607           2120
 3  2013     1    10     1121           1635      1126     1239           1810
 4  2013     9    20     1139           1845      1014     1457           2210
 5  2013     7    22      845           1600      1005     1044           1815
 6  2013     4    10     1100           1900       960     1342           2211
 7  2013     3    17     2321            810       911      135           1020
 8  2013     7    22     2257            759       898      121           1026
 9  2013    12     5      756           1700       896     1058           2020
10  2013     5     3     1133           2055       878     1250           2215
# ℹ 336,766 more rows
# ℹ 11 more variables: arr_delay <dbl>, carrier <chr>, flight <int>,
#   tailnum <chr>, origin <chr>, dest <chr>, air_time <dbl>, distance <dbl>,
#   hour <dbl>, minute <dbl>, time_hour <dttm>
…
# średnie opóźnienie przylotu w zależności od lotniska docelowego
flights |> filter(is.na(arr_delay) == FALSE) |> group_by(dest) |> summarize(Delay = mean(arr_delay)) |> arrange(desc(Delay))

# A tibble: 104 × 2
   dest  Delay
   <chr> <dbl>
 1 CAE    41.8
 2 TUL    33.7
 3 OKC    30.6
 4 JAC    28.1
 5 TYS    24.1
 6 MSN    20.2
 7 RIC    20.1
 8 CAK    19.7
 9 DSM    19.0
10 GRR    18.2
# ℹ 94 more rows

# średnie opóźnienia przylotu każdego przewoźnika do każdego lotniska docelowego
flights |> filter(is.na(arr_delay) == FALSE) |> group_by(carrier, dest) |> summarize(Delay = mean(arr_delay), .groups = "drop") |> arrange(desc(Delay))

# A tibble: 312 × 3
   carrier dest  Delay
   <chr>   <chr> <dbl>
 1 UA      STL   110  
 2 OO      ORD   107  
 3 OO      DTW    68.5
 4 UA      RDU    56  
 5 EV      CAE    42.8
 6 EV      TYS    41.2
 7 EV      PBI    40.7
 8 EV      TUL    33.7
 9 EV      OKC    30.6
10 UA      JAC    29.9
# ℹ 302 more rows

# loty ułożone od największego średniego opóźnienia odlotu dla każdego lotniska wylotowego
flights |> filter(is.na(dep_delay) == FALSE) |> group_by(origin, dest) |> summarize(Delay = mean(dep_delay), .groups = "drop") |> arrange(desc(Delay)) |> arrange(origin)

# A tibble: 223 × 3
   origin dest  Delay
   <chr>  <chr> <dbl>
 1 EWR    TYS    41.8
 2 EWR    CAE    36.3
 3 EWR    TUL    34.9
 4 EWR    OKC    30.6
 5 EWR    DSM    29.3
 6 EWR    JAC    28.7
 7 EWR    ROC    27.9
 8 EWR    RIC    26.5
 9 EWR    PWM    25.7
10 EWR    BQN    23.9
# ℹ 213 more rows
…
ℹ Use `spec()` to retrieve the full column specification for this data.
ℹ Specify the column types or set `show_col_types = FALSE` to quiet this message.

# wszystkie piosenki, które spadły z listy we wrześniu 2000
billboard |> pivot_longer(cols = starts_with("x"), names_to = "week", values_to = "position") |> filter(is.na(position) == FALSE) |> group_by(artist.inverted, track, date.entered) |> summarize(number_of_weeks = n()) |> mutate(drop_date = date.entered + 7 * number_of_weeks)|> mutate(drop_year = format(as.Date(drop_date, format="%d/%m/%Y"),"%Y")) |> mutate(drop_month = format(as.Date(drop_date, format="%d/%m/%Y"),"%m")) |> filter(drop_year == "2000" & drop_month == "09")

`summarise()` has grouped output by 'artist.inverted', 'track'. You can
override using the `.groups` argument.

# A tibble: 25 × 7
# Groups:   artist.inverted, track [25]
   artist.inverted      track  date.entered number_of_weeks drop_date  drop_year
   <chr>                <chr>  <date>                 <int> <date>     <chr>    
 1 2Ge+her              The H… 2000-09-02                 3 2000-09-23 2000     
 2 Aguilera, Christina  I Tur… 2000-04-15                22 2000-09-16 2000     
 3 Avant                Separ… 2000-04-29                20 2000-09-16 2000     
 4 Backstreet Boys, The The O… 2000-05-27                15 2000-09-09 2000     
 5 Dixie Chicks, The    Cold … 2000-06-24                10 2000-09-02 2000     
 6 Eminem               The R… 2000-05-06                19 2000-09-16 2000     
 7 Goo Goo Dolls        Broad… 2000-04-22                20 2000-09-09 2000     
 8 Heatherly, Eric      Flowe… 2000-04-29                20 2000-09-16 2000     
 9 Jay-Z                Big P… 2000-04-22                20 2000-09-09 2000     
10 Jones, Donell        Where… 2000-04-22                20 2000-09-09 2000     
# ℹ 15 more rows
# ℹ 1 more variable: drop_month <chr>
…
